EESchema Schematic File Version 4
LIBS:Preamp_linear-cache
EELAYER 28 0
EELAYER END
$Descr A4 11693 8268
encoding utf-8
Sheet 1 1
Title ""
Date ""
Rev ""
Comp ""
Comment1 ""
Comment2 ""
Comment3 ""
Comment4 ""
$EndDescr
$Comp
L Connector:Conn_01x03_Male J1
U 1 1 5BBAE504
P 850 2550
F 0 "J1" H 956 2828 50  0000 C CNN
F 1 "INPUT" H 956 2737 50  0000 C CNN
F 2 "TerminalBlock:TerminalBlock_bornier-3_P5.08mm" H 850 2550 50  0001 C CNN
F 3 "~" H 850 2550 50  0001 C CNN
	1    850  2550
	1    0    0    -1  
$EndComp
$Comp
L power:GND #PWR0101
U 1 1 5BBAE5CE
P 1250 2800
F 0 "#PWR0101" H 1250 2550 50  0001 C CNN
F 1 "GND" H 1255 2627 50  0000 C CNN
F 2 "" H 1250 2800 50  0001 C CNN
F 3 "" H 1250 2800 50  0001 C CNN
	1    1250 2800
	1    0    0    -1  
$EndComp
Wire Wire Line
	1250 2800 1250 2550
Wire Wire Line
	1250 2550 1050 2550
$Comp
L Device:CP C1
U 1 1 5BBAE8C8
P 3200 2300
F 0 "C1" H 3318 2346 50  0000 L CNN
F 1 "2200u" H 3318 2255 50  0000 L CNN
F 2 "Capacitor_THT:CP_Radial_D22.0mm_P10.00mm_SnapIn" H 3238 2150 50  0001 C CNN
F 3 "~" H 3200 2300 50  0001 C CNN
	1    3200 2300
	1    0    0    -1  
$EndComp
$Comp
L Device:CP C2
U 1 1 5BBAE930
P 3200 2900
F 0 "C2" H 3318 2946 50  0000 L CNN
F 1 "2200u" H 3318 2855 50  0000 L CNN
F 2 "Capacitor_THT:CP_Radial_D22.0mm_P10.00mm_SnapIn" H 3238 2750 50  0001 C CNN
F 3 "~" H 3200 2900 50  0001 C CNN
	1    3200 2900
	1    0    0    -1  
$EndComp
Wire Wire Line
	3200 2050 3200 2150
Wire Wire Line
	3200 3200 3200 3050
Wire Wire Line
	3200 2750 3200 2600
$Comp
L power:GND #PWR0102
U 1 1 5BBAEB64
P 2900 2700
F 0 "#PWR0102" H 2900 2450 50  0001 C CNN
F 1 "GND" H 2905 2527 50  0000 C CNN
F 2 "" H 2900 2700 50  0001 C CNN
F 3 "" H 2900 2700 50  0001 C CNN
	1    2900 2700
	1    0    0    -1  
$EndComp
Wire Wire Line
	2900 2700 2900 2600
Wire Wire Line
	2900 2600 3200 2600
Connection ~ 3200 2600
Wire Wire Line
	3200 2600 3200 2450
$Comp
L Device:C C5
U 1 1 5BBAED29
P 4950 2300
F 0 "C5" H 5065 2346 50  0000 L CNN
F 1 "100n" H 5065 2255 50  0000 L CNN
F 2 "Capacitor_THT:C_Rect_L7.0mm_W2.0mm_P5.00mm" H 4988 2150 50  0001 C CNN
F 3 "~" H 4950 2300 50  0001 C CNN
	1    4950 2300
	1    0    0    -1  
$EndComp
$Comp
L Device:C C6
U 1 1 5BBAED91
P 4950 2900
F 0 "C6" H 5065 2946 50  0000 L CNN
F 1 "100n" H 5065 2855 50  0000 L CNN
F 2 "Capacitor_THT:C_Rect_L7.0mm_W2.0mm_P5.00mm" H 4988 2750 50  0001 C CNN
F 3 "~" H 4950 2900 50  0001 C CNN
	1    4950 2900
	1    0    0    -1  
$EndComp
$Comp
L Device:R R1
U 1 1 5BBAFBAD
P 3850 2050
F 0 "R1" V 3643 2050 50  0000 C CNN
F 1 "10/1W" V 3734 2050 50  0000 C CNN
F 2 "Resistor_THT:R_Axial_DIN0207_L6.3mm_D2.5mm_P2.54mm_Vertical" V 3780 2050 50  0001 C CNN
F 3 "~" H 3850 2050 50  0001 C CNN
	1    3850 2050
	0    1    1    0   
$EndComp
$Comp
L Device:R R2
U 1 1 5BBAFC33
P 3850 3200
F 0 "R2" V 3643 3200 50  0000 C CNN
F 1 "10/1W" V 3734 3200 50  0000 C CNN
F 2 "Resistor_THT:R_Axial_DIN0207_L6.3mm_D2.5mm_P2.54mm_Vertical" V 3780 3200 50  0001 C CNN
F 3 "~" H 3850 3200 50  0001 C CNN
	1    3850 3200
	0    1    1    0   
$EndComp
Wire Wire Line
	3700 2050 3200 2050
Wire Wire Line
	3700 3200 3200 3200
$Comp
L Device:CP C3
U 1 1 5BBAFFB5
P 4400 2300
F 0 "C3" H 4518 2346 50  0000 L CNN
F 1 "2200u" H 4518 2255 50  0000 L CNN
F 2 "Capacitor_THT:CP_Radial_D16.0mm_P7.50mm" H 4438 2150 50  0001 C CNN
F 3 "~" H 4400 2300 50  0001 C CNN
	1    4400 2300
	1    0    0    -1  
$EndComp
$Comp
L Device:CP C4
U 1 1 5BBAFFF5
P 4400 2900
F 0 "C4" H 4518 2946 50  0000 L CNN
F 1 "2200u" H 4518 2855 50  0000 L CNN
F 2 "Capacitor_THT:CP_Radial_D16.0mm_P7.50mm" H 4438 2750 50  0001 C CNN
F 3 "~" H 4400 2900 50  0001 C CNN
	1    4400 2900
	1    0    0    -1  
$EndComp
Wire Wire Line
	4000 3200 4400 3200
Wire Wire Line
	4400 3200 4400 3050
Wire Wire Line
	4400 2750 4400 2600
Wire Wire Line
	3200 2600 4400 2600
Connection ~ 4400 2600
Wire Wire Line
	4400 2600 4400 2450
Wire Wire Line
	4400 2150 4400 2050
Wire Wire Line
	4400 2050 4000 2050
Wire Wire Line
	4950 2150 4950 2050
Wire Wire Line
	4950 2050 4400 2050
Connection ~ 4400 2050
Wire Wire Line
	4950 3050 4950 3200
Wire Wire Line
	4950 3200 4400 3200
Connection ~ 4400 3200
Wire Wire Line
	4400 2600 4950 2600
Wire Wire Line
	4950 2600 4950 2450
Wire Wire Line
	4950 2750 4950 2600
Connection ~ 4950 2600
$Comp
L Regulator_Linear:LM317_3PinPackage U1
U 1 1 5BBB1F68
P 5750 1700
F 0 "U1" H 5750 1942 50  0000 C CNN
F 1 "LM317_3PinPackage" H 5750 1851 50  0000 C CNN
F 2 "Package_TO_SOT_THT:TO-220-3_Vertical" H 5750 1950 50  0001 C CIN
F 3 "http://www.ti.com/lit/ds/symlink/lm317.pdf" H 5750 1700 50  0001 C CNN
	1    5750 1700
	1    0    0    -1  
$EndComp
$Comp
L Regulator_Linear:LM337_TO220 U2
U 1 1 5BBB20A5
P 5750 3550
F 0 "U2" H 5750 3400 50  0000 C CNN
F 1 "LM337_TO220" H 5750 3309 50  0000 C CNN
F 2 "Package_TO_SOT_THT:TO-220-3_Vertical" H 5750 3350 50  0001 C CIN
F 3 "http://www.ti.com/lit/ds/symlink/lm337-n.pdf" H 5750 3550 50  0001 C CNN
	1    5750 3550
	1    0    0    -1  
$EndComp
$Comp
L Device:R R3
U 1 1 5BBB2339
P 5750 2350
F 0 "R3" H 5820 2396 50  0000 L CNN
F 1 "2.7k" H 5820 2305 50  0000 L CNN
F 2 "Resistor_THT:R_Axial_DIN0204_L3.6mm_D1.6mm_P7.62mm_Horizontal" V 5680 2350 50  0001 C CNN
F 3 "~" H 5750 2350 50  0001 C CNN
	1    5750 2350
	1    0    0    -1  
$EndComp
$Comp
L Device:R R4
U 1 1 5BBB2D9B
P 5750 2900
F 0 "R4" H 5820 2946 50  0000 L CNN
F 1 "2.7k" H 5820 2855 50  0000 L CNN
F 2 "Resistor_THT:R_Axial_DIN0204_L3.6mm_D1.6mm_P7.62mm_Horizontal" V 5680 2900 50  0001 C CNN
F 3 "~" H 5750 2900 50  0001 C CNN
	1    5750 2900
	1    0    0    -1  
$EndComp
$Comp
L Device:R R5
U 1 1 5BBB3AD4
P 6250 1900
F 0 "R5" H 6320 1946 50  0000 L CNN
F 1 "240" H 6320 1855 50  0000 L CNN
F 2 "Resistor_THT:R_Axial_DIN0204_L3.6mm_D1.6mm_P7.62mm_Horizontal" V 6180 1900 50  0001 C CNN
F 3 "~" H 6250 1900 50  0001 C CNN
	1    6250 1900
	1    0    0    -1  
$EndComp
$Comp
L Device:CP_Small C7
U 1 1 5BBB3CD1
P 6250 2350
F 0 "C7" H 6338 2396 50  0000 L CNN
F 1 "15u" H 6338 2305 50  0000 L CNN
F 2 "Capacitor_THT:CP_Radial_Tantal_D5.0mm_P2.50mm" H 6250 2350 50  0001 C CNN
F 3 "~" H 6250 2350 50  0001 C CNN
	1    6250 2350
	1    0    0    -1  
$EndComp
$Comp
L Device:R R6
U 1 1 5BBB3F93
P 6250 3350
F 0 "R6" H 6320 3396 50  0000 L CNN
F 1 "240" H 6320 3305 50  0000 L CNN
F 2 "Resistor_THT:R_Axial_DIN0204_L3.6mm_D1.6mm_P7.62mm_Horizontal" V 6180 3350 50  0001 C CNN
F 3 "~" H 6250 3350 50  0001 C CNN
	1    6250 3350
	1    0    0    -1  
$EndComp
$Comp
L Device:CP_Small C8
U 1 1 5BBB3FF3
P 6250 2900
F 0 "C8" H 6338 2946 50  0000 L CNN
F 1 "15u" H 6338 2855 50  0000 L CNN
F 2 "Capacitor_THT:CP_Radial_Tantal_D5.0mm_P2.50mm" H 6250 2900 50  0001 C CNN
F 3 "~" H 6250 2900 50  0001 C CNN
	1    6250 2900
	1    0    0    -1  
$EndComp
Wire Wire Line
	6250 2800 6250 2600
Wire Wire Line
	5750 2500 5750 2600
Wire Wire Line
	4950 2600 5750 2600
Connection ~ 5750 2600
Wire Wire Line
	5750 2600 5750 2750
Wire Wire Line
	5750 2600 6250 2600
Connection ~ 6250 2600
Wire Wire Line
	6250 2600 6250 2450
Wire Wire Line
	5750 3250 5750 3100
Wire Wire Line
	6250 3200 6250 3100
Wire Wire Line
	6250 3100 5750 3100
Connection ~ 6250 3100
Wire Wire Line
	6250 3100 6250 3000
Connection ~ 5750 3100
Wire Wire Line
	5750 3100 5750 3050
Wire Wire Line
	6250 3500 6250 3550
Wire Wire Line
	6250 3550 6050 3550
Wire Wire Line
	6250 2250 6250 2100
Wire Wire Line
	5750 2200 5750 2100
Wire Wire Line
	5750 2100 6250 2100
Connection ~ 5750 2100
Wire Wire Line
	5750 2100 5750 2000
Connection ~ 6250 2100
Wire Wire Line
	6250 2100 6250 2050
Wire Wire Line
	6050 1700 6250 1700
Wire Wire Line
	6250 1700 6250 1750
Wire Wire Line
	4950 2050 4950 1700
Wire Wire Line
	4950 1700 5450 1700
Connection ~ 4950 2050
Wire Wire Line
	4950 3200 4950 3550
Wire Wire Line
	4950 3550 5450 3550
Connection ~ 4950 3200
$Comp
L Device:D D4
U 1 1 5BBBA5D9
P 6600 1900
F 0 "D4" V 6554 1979 50  0000 L CNN
F 1 "D" V 6645 1979 50  0000 L CNN
F 2 "Diode_THT:D_T-1_P10.16mm_Horizontal" H 6600 1900 50  0001 C CNN
F 3 "~" H 6600 1900 50  0001 C CNN
	1    6600 1900
	0    1    1    0   
$EndComp
Connection ~ 6250 1700
$Comp
L Device:D D5
U 1 1 5BBBC2DC
P 6600 3350
F 0 "D5" V 6554 3429 50  0000 L CNN
F 1 "D" V 6645 3429 50  0000 L CNN
F 2 "Diode_THT:D_T-1_P10.16mm_Horizontal" H 6600 3350 50  0001 C CNN
F 3 "~" H 6600 3350 50  0001 C CNN
	1    6600 3350
	0    1    1    0   
$EndComp
Connection ~ 6250 3550
$Comp
L Device:D D2
U 1 1 5BBBDFDF
P 5750 1250
F 0 "D2" H 5750 1466 50  0000 C CNN
F 1 "D" H 5750 1375 50  0000 C CNN
F 2 "Diode_THT:D_T-1_P10.16mm_Horizontal" H 5750 1250 50  0001 C CNN
F 3 "~" H 5750 1250 50  0001 C CNN
	1    5750 1250
	1    0    0    -1  
$EndComp
Wire Wire Line
	5900 1250 6250 1250
Wire Wire Line
	6250 1250 6250 1700
Wire Wire Line
	5600 1250 4950 1250
Wire Wire Line
	4950 1250 4950 1700
Connection ~ 4950 1700
$Comp
L Device:D D3
U 1 1 5BBC0143
P 5750 4150
F 0 "D3" H 5750 3934 50  0000 C CNN
F 1 "D" H 5750 4025 50  0000 C CNN
F 2 "Diode_THT:D_T-1_P10.16mm_Horizontal" H 5750 4150 50  0001 C CNN
F 3 "~" H 5750 4150 50  0001 C CNN
	1    5750 4150
	-1   0    0    1   
$EndComp
Wire Wire Line
	5600 4150 4950 4150
Wire Wire Line
	4950 4150 4950 3550
Connection ~ 4950 3550
Wire Wire Line
	5900 4150 6250 4150
Wire Wire Line
	6250 4150 6250 3550
$Comp
L Device:C C9
U 1 1 5BBC7C1D
P 7100 2350
F 0 "C9" H 7215 2396 50  0000 L CNN
F 1 "100n" H 7215 2305 50  0000 L CNN
F 2 "Capacitor_THT:C_Rect_L7.0mm_W2.0mm_P5.00mm" H 7138 2200 50  0001 C CNN
F 3 "~" H 7100 2350 50  0001 C CNN
	1    7100 2350
	1    0    0    -1  
$EndComp
$Comp
L Device:C C10
U 1 1 5BBC7C85
P 7100 2900
F 0 "C10" H 7215 2946 50  0000 L CNN
F 1 "100n" H 7215 2855 50  0000 L CNN
F 2 "Capacitor_THT:C_Rect_L7.0mm_W2.0mm_P5.00mm" H 7138 2750 50  0001 C CNN
F 3 "~" H 7100 2900 50  0001 C CNN
	1    7100 2900
	1    0    0    -1  
$EndComp
Wire Wire Line
	7100 1700 7100 2200
Connection ~ 7100 1700
Wire Wire Line
	7100 2750 7100 2600
Connection ~ 7100 2600
Wire Wire Line
	7100 2500 7100 2600
Wire Wire Line
	7100 3050 7100 3550
Connection ~ 7100 3550
$Comp
L Device:CP_Small C11
U 1 1 5BBE22D4
P 7950 2350
F 0 "C11" H 8038 2396 50  0000 L CNN
F 1 "1u" H 8038 2305 50  0000 L CNN
F 2 "Capacitor_THT:CP_Radial_Tantal_D4.5mm_P2.50mm" H 7950 2350 50  0001 C CNN
F 3 "~" H 7950 2350 50  0001 C CNN
	1    7950 2350
	1    0    0    -1  
$EndComp
$Comp
L Device:CP_Small C12
U 1 1 5BBE237E
P 7950 2900
F 0 "C12" H 8038 2946 50  0000 L CNN
F 1 "1u" H 8038 2855 50  0000 L CNN
F 2 "Capacitor_THT:CP_Radial_Tantal_D4.5mm_P2.50mm" H 7950 2900 50  0001 C CNN
F 3 "~" H 7950 2900 50  0001 C CNN
	1    7950 2900
	1    0    0    -1  
$EndComp
Wire Wire Line
	7950 2250 7950 1700
Wire Wire Line
	7950 2450 7950 2600
Wire Wire Line
	7950 2600 7950 2800
Connection ~ 7950 2600
Wire Wire Line
	7950 3000 7950 3550
$Comp
L Connector:Conn_01x03_Male J2
U 1 1 5BBE8CC1
P 8550 2600
F 0 "J2" H 8522 2530 50  0000 R CNN
F 1 "OUTPUT" H 8522 2621 50  0000 R CNN
F 2 "TerminalBlock:TerminalBlock_bornier-3_P5.08mm" H 8550 2600 50  0001 C CNN
F 3 "~" H 8550 2600 50  0001 C CNN
	1    8550 2600
	-1   0    0    1   
$EndComp
Wire Wire Line
	8350 2600 7950 2600
Wire Wire Line
	8350 2500 8350 1700
Wire Wire Line
	8350 1700 7950 1700
Connection ~ 7950 1700
Wire Wire Line
	8350 2700 8350 3550
Wire Wire Line
	8350 3550 7950 3550
Connection ~ 7950 3550
$Comp
L Device:D D1
U 1 1 5BBB312B
P 1900 2250
F 0 "D1" H 1900 2466 50  0000 C CNN
F 1 "D" H 1900 2375 50  0000 C CNN
F 2 "Diode_THT:D_T-1_P10.16mm_Horizontal" H 1900 2250 50  0001 C CNN
F 3 "~" H 1900 2250 50  0001 C CNN
	1    1900 2250
	0    1    1    0   
$EndComp
$Comp
L Device:D D7
U 1 1 5BBB31F9
P 2300 2250
F 0 "D7" H 2300 2466 50  0000 C CNN
F 1 "D" H 2300 2375 50  0000 C CNN
F 2 "Diode_THT:D_T-1_P10.16mm_Horizontal" H 2300 2250 50  0001 C CNN
F 3 "~" H 2300 2250 50  0001 C CNN
	1    2300 2250
	0    1    1    0   
$EndComp
$Comp
L Device:D D6
U 1 1 5BBB324B
P 1900 2850
F 0 "D6" H 1900 3066 50  0000 C CNN
F 1 "D" H 1900 2975 50  0000 C CNN
F 2 "Diode_THT:D_T-1_P10.16mm_Horizontal" H 1900 2850 50  0001 C CNN
F 3 "~" H 1900 2850 50  0001 C CNN
	1    1900 2850
	0    1    1    0   
$EndComp
$Comp
L Device:D D8
U 1 1 5BBB32C5
P 2300 2850
F 0 "D8" H 2300 3066 50  0000 C CNN
F 1 "D" H 2300 2975 50  0000 C CNN
F 2 "Diode_THT:D_T-1_P10.16mm_Horizontal" H 2300 2850 50  0001 C CNN
F 3 "~" H 2300 2850 50  0001 C CNN
	1    2300 2850
	0    1    1    0   
$EndComp
Wire Wire Line
	1900 3000 1900 3200
Wire Wire Line
	1900 3200 2300 3200
Connection ~ 3200 3200
Wire Wire Line
	2300 3000 2300 3200
Connection ~ 2300 3200
Wire Wire Line
	2300 3200 3200 3200
Wire Wire Line
	1900 2100 1900 2050
Wire Wire Line
	1900 2050 2300 2050
Connection ~ 3200 2050
Wire Wire Line
	2300 2100 2300 2050
Connection ~ 2300 2050
Wire Wire Line
	2300 2050 3200 2050
Wire Wire Line
	2300 2400 2300 2650
Wire Wire Line
	1900 2400 1900 2450
Wire Wire Line
	1050 2650 2300 2650
Connection ~ 2300 2650
Wire Wire Line
	2300 2650 2300 2700
Wire Wire Line
	1050 2450 1900 2450
Connection ~ 1900 2450
Wire Wire Line
	1900 2450 1900 2700
Wire Wire Line
	7100 3550 7950 3550
Wire Wire Line
	7100 1700 7950 1700
Wire Wire Line
	7100 2600 7950 2600
Wire Wire Line
	6250 1700 6600 1700
Wire Wire Line
	6250 2600 7100 2600
Wire Wire Line
	6250 3550 6600 3550
Wire Wire Line
	6600 3200 6600 3100
Wire Wire Line
	6600 3100 6250 3100
Wire Wire Line
	6250 2100 6600 2100
Wire Wire Line
	6600 2100 6600 2050
Wire Wire Line
	6600 1750 6600 1700
Connection ~ 6600 1700
Wire Wire Line
	6600 1700 7100 1700
Wire Wire Line
	6600 3500 6600 3550
Connection ~ 6600 3550
Wire Wire Line
	6600 3550 7100 3550
$EndSCHEMATC
